{
  "type": "minecraft:crafting_shaped",

  "pattern":
  [
    " x ",
    "xyx",
    " x "
  ],

  "key":
  {
    "x":
    {
      "item": "minecraft:cobblestone"
    },
    "y":
    {
      "item": "minecraft:dirt"
    }
  },

  "result":
  {
    "item": "minecraftianlegacy:lost_legacy",
    "count": 1
  }
}